Point(1) = {0.000000, 0.700000, 0, 1};
Point(2) = {0.000000, 1.000000, 0, 1};
Line(1) = {1, 2};
Point(3) = {1.000000, 1.000000, 0, 1};
Line(2) = {2, 3};
Point(4) = {1.000000, 0.800000, 0, 1};
Line(3) = {3, 4};

Line(4) = {4, 1};
Line Loop(1) = {1, 2, 3, 4}; 
Plane Surface(1) = {1};
Point(5) = {0.000000, 0.300000, 0, 1};
Line(5) = {5, 1};
Point(6) = {1.000000, 0.200000, 0, 1};
Line(6) = {4, 6};

Line(7) = {6, 5};
Line Loop(2) = {5, -4, 6, 7}; 
Plane Surface(2) = {2};
Point(7) = {0.000000, 0.000000, 0, 1};
Line(8) = {7, 5};
Point(8) = {1.000000, 0.000000, 0, 1};
Line(9) = {6, 8};

Line(10) = {8, 7};
Line Loop(3) = {8, -7, 9, 10}; 
Plane Surface(3) = {3};
