$MeshFormat
2.2 0 8
$EndMeshFormat
$Nodes
588
1 0 0.7 0
2 0 1 0
3 1 1 0
4 1 0.8 0
5 0 0.7250000000000072 0
6 0 0.7499999999999349 0
7 0 0.7749999999998265 0
8 0 0.7999999999998193 0
9 0 0.8249999999998192 0
10 0 0.8499999999998264 0
11 0 0.8749999999998337 0
12 0 0.8999999999998336 0
13 0 0.9249999999998916 0
14 0 0.9499999999999711 0
15 0 0.9750000000000072 0
16 0.02499999999995287 1 0
17 0.04999999999989965 1 0
18 0.07499999999985282 1 0
19 0.09999999999981467 1 0
20 0.1249999999997738 1 0
21 0.1499999999997036 1 0
22 0.1749999999996307 1 0
23 0.1999999999995579 1 0
24 0.224999999999485 1 0
25 0.2499999999994121 1 0
26 0.2749999999993392 1 0
27 0.2999999999992664 1 0
28 0.3249999999991935 1 0
29 0.3499999999991206 1 0
30 0.3749999999990478 1 0
31 0.3999999999989749 1 0
32 0.4249999999989021 1 0
33 0.4499999999988292 1 0
34 0.4749999999987564 1 0
35 0.4999999999986943 1 0
36 0.5249999999987492 1 0
37 0.5499999999988151 1 0
38 0.574999999998881 1 0
39 0.5999999999989468 1 0
40 0.6249999999990126 1 0
41 0.6499999999990784 1 0
42 0.6749999999991443 1 0
43 0.69999999999921 1 0
44 0.724999999999276 1 0
45 0.7499999999993417 1 0
46 0.7749999999994076 1 0
47 0.7999999999994734 1 0
48 0.8249999999995392 1 0
49 0.8499999999996051 1 0
50 0.8749999999996708 1 0
51 0.8999999999997368 1 0
52 0.9249999999998024 1 0
53 0.9499999999998684 1 0
54 0.9749999999999343 1 0
55 1 0.9750000000000759 0
56 1 0.9500000000001735 0
57 1 0.9250000000002278 0
58 1 0.9000000000001737 0
59 1 0.8750000000001195 0
60 1 0.8500000000000868 0
61 1 0.8250000000000542 0
62 0.9756097560974634 0.7975609756097464 0
63 0.9512195121949245 0.7951219512194925 0
64 0.9268292682923835 0.7926829268292384 0
65 0.9024390243898448 0.7902439024389845 0
66 0.8780487804873169 0.7878048780487317 0
67 0.853658536584998 0.7853658536584999 0
68 0.8292682926827267 0.7829268292682727 0
69 0.8048780487804539 0.7804878048780454 0
70 0.7804878048781831 0.7780487804878183 0
71 0.7560975609759146 0.7756097560975915 0
72 0.7317073170736448 0.7731707317073645 0
73 0.7073170731713754 0.7707317073171376 0
74 0.6829268292691035 0.7682926829269103 0
75 0.6585365853668319 0.7658536585366832 0
76 0.6341463414645589 0.7634146341464559 0
77 0.6097560975622883 0.7609756097562288 0
78 0.5853658536600197 0.758536585366002 0
79 0.5609756097577494 0.756097560975775 0
80 0.5365853658554804 0.753658536585548 0
81 0.5121951219532119 0.7512195121953212 0
82 0.4878048780508072 0.7487804878050808 0
83 0.4634146341482706 0.7463414634148271 0
84 0.4390243902457316 0.7439024390245732 0
85 0.4146341463431905 0.7414634146343191 0
86 0.3902439024406495 0.739024390244065 0
87 0.3658536585381107 0.7365853658538111 0
88 0.3414634146355697 0.734146341463557 0
89 0.31707317073303 0.7317073170733029 0
90 0.2926829268304855 0.7292682926830485 0
91 0.2682926829279432 0.7268292682927943 0
92 0.2439024390254014 0.7243902439025401 0
93 0.2195121951228564 0.7219512195122856 0
94 0.1951219512203152 0.7195121951220315 0
95 0.1707317073177721 0.7170731707317772 0
96 0.1463414634152327 0.7146341463415232 0
97 0.1219512195126923 0.7121951219512692 0
98 0.0975609756101512 0.7097560975610151 0
99 0.07317073170761235 0.7073170731707612 0
100 0.0487804878050756 0.7048780487805075 0
101 0.02439024390253675 0.7024390243902536 0
102 0.1443853909020587 0.8573656031810756 0
103 0.2887323830682226 0.8637853035986996 0
104 0.420080634169184 0.8712978245075735 0
105 0.5409442251476951 0.8760883842514696 0
106 0.6591911844690286 0.8824783992211704 0
107 0.7789560101317835 0.8881064781798975 0
108 0.8871906573944315 0.8958893784861809 0
109 0.2161559834624055 0.8086656036043453 0
110 0.2153881437936254 0.9113342403429251 0
111 0.08603773429138276 0.7954651186479074 0
112 0.08292205872649551 0.9149519471413381 0
113 0.3568181824083997 0.8141370960785076 0
114 0.3535612200837082 0.919260510022459 0
115 0.4843986172898154 0.8250177410652771 0
116 0.4804315378082634 0.9219206441580885 0
117 0.6033709812648194 0.8351032404759036 0
118 0.5988741517958743 0.924902544367475 0
119 0.7218157178733715 0.846914514304453 0
120 0.7184651754225038 0.9255465221318417 0
121 0.1551584068874491 0.7854324958132664 0
122 0.288869605174659 0.7974911596452421 0
123 0.2865668191861476 0.9327896676345003 0
124 0.1512297323717379 0.9316384138689584 0
125 0.838174655467337 0.849830463628754 0
126 0.8308928216334706 0.9319170338071793 0
127 0.4221369261763701 0.8070483515867219 0
128 0.4150580409970428 0.9357304838824708 0
129 0.9341233507942313 0.9362612772249544 0
130 0.06395529210292565 0.8551338744522727 0
131 0.9405703654049203 0.8596886033554237 0
132 0.5487905034721189 0.8169828689531015 0
133 0.5384714946159699 0.9392063840677889 0
134 0.6651012899595035 0.8225729098235945 0
135 0.6609146598641334 0.9417334042153666 0
136 0.7753860638928647 0.8317812723936702 0
137 0.7713893613134672 0.9441406916109034 0
138 0.2375693811526857 0.8621619120627507 0
139 0.8847732739889426 0.9478930874951896 0
140 0.888181462840584 0.8424927519080192 0
141 0.3679821684225874 0.8704353048521815 0
142 0.04764108274763709 0.7575946151154423 0
143 0.4692594925652439 0.8750185522996043 0
144 0.04582550524860676 0.9494983294048682 0
145 0.1982910085854109 0.7660557714426206 0
146 0.2407172770926163 0.9539427495132616 0
147 0.1917557121430208 0.8497292589184711 0
148 0.2469827822694727 0.7716012778347481 0
149 0.1162320743426148 0.7589353538376359 0
150 0.3323099423757919 0.7791853209338876 0
151 0.1955111575124373 0.9532418190391451 0
152 0.6062961621926474 0.8815484581989814 0
153 0.1090502469418996 0.9578393721611251 0
154 0.1726011746046345 0.8967782763928622 0
155 0.04560722941840291 0.8161056070392168 0
156 0.1049700931604279 0.8346031617364544 0
157 0.3265504677041351 0.9553088366886848 0
158 0.3869014764500137 0.7836318999081953 0
159 0.04439700148365854 0.8952703492034073 0
160 0.1235591116814251 0.8964542578851605 0
161 0.6981445612676357 0.8893286620411821 0
162 0.956778980139021 0.8974765867418031 0
163 0.3758338656316652 0.9543651827706874 0
164 0.3169587922821133 0.8274031048498007 0
165 0.4617581477257276 0.7894469269047776 0
166 0.2567326730183248 0.8960250260191411 0
167 0.4551849758893706 0.9601432407822093 0
168 0.8240993731271189 0.8906246165768763 0
169 0.3144721076413468 0.9006060300987619 0
170 0.5050615849988757 0.7888897312844764 0
171 0.4989794243413014 0.95991466328771 0
172 0.3934301933657466 0.83633657160357 0
173 0.2618769554143385 0.8258681683314366 0
174 0.5820247289342338 0.7993455076764096 0
175 0.3945593504505474 0.905184839989555 0
176 0.6274397886092027 0.8033057913158537 0
177 0.6209693029042076 0.9618560157890791 0
178 0.5772074695678915 0.9607190662382258 0
179 0.4454331506700062 0.8396655514043468 0
180 0.702951587582918 0.8112382194489682 0
181 0.446060630565771 0.9045350699849619 0
182 0.5088459864609555 0.8624260423546938 0
183 0.7410186708701716 0.8828948778445924 0
184 0.6970604414474851 0.9591242403414091 0
185 0.5155860883762181 0.9066391161177872 0
186 0.8133584531588437 0.818854492800618 0
187 0.7452409723954784 0.8132324360103422 0
188 0.7360350694492833 0.9619721792868733 0
189 0.1628574595395625 0.8219285250299321 0
190 0.56556066973731 0.8464650556985507 0
191 0.3299629140292143 0.863842670752511 0
192 0.5637132223842515 0.9099138501967788 0
193 0.804811696805718 0.962359409714359 0
194 0.6353222106430637 0.9128252126493598 0
195 0.6387275094765024 0.8499308404462105 0
196 0.9618512143889946 0.963873585198165 0
197 0.1206347952440775 0.8007841580360812 0
198 0.0967534206667231 0.8714720810267848 0
199 0.9616004782537078 0.8304820520577749 0
200 0.6870942768725322 0.8528216151398724 0
201 0.1556114418503335 0.7504455976296107 0
202 0.8571898140349977 0.8209472588799392 0
203 0.8508484595867645 0.9643031066558334 0
204 0.8019747898317923 0.8594384000511187 0
205 0.0842529667946352 0.7421333779869652 0
206 0.798609792816716 0.9207657301096641 0
207 0.2988187739266757 0.7629605011960712 0
208 0.9171092957607224 0.9648947023640717 0
209 0.7516374076148309 0.9146783118061654 0
210 0.6816757925149327 0.908990372519048 0
211 0.9206614176323097 0.9063313124408806 0
212 0.1597143237458143 0.9659252890922956 0
213 0.9192704883488174 0.8258739229153114 0
214 0.8590481018623195 0.8763567259702155 0
215 0.1893310012503255 0.803023961741374 0
216 0.274535777600955 0.9668738886422334 0
217 0.8642799606756028 0.9186093426939858 0
218 0.5816970303447379 0.8794151157509736 0
219 0.2117733970991617 0.8814441071735641 0
220 0.4237617402736852 0.7733582070372051 0
221 0.03344984270528892 0.8610194407903046 0
222 0.0840106834424566 0.9642046193222003 0
223 0.9040576549775374 0.8654402520773545 0
224 0.4134455286762759 0.9693661454001019 0
225 0.03198325840137591 0.7832943392703063 0
226 0.9697158272429518 0.8645237463321855 0
227 0.9678998610337828 0.9259364738313688 0
228 0.07455188640665032 0.8248527215988145 0
229 0.5140427479946161 0.8281888672112547 0
230 0.5465741902024487 0.778934045417994 0
231 0.184527267143156 0.92313379901349 0
232 0.03184433078728031 0.92533204229304 0
233 0.5375522119864871 0.9757972281825973 0
234 0.0327517747823053 0.7366232169627384 0
235 0.3586153564118233 0.7666357701490307 0
236 0.7611862571200663 0.8489514079806489 0
237 0.6615153602227654 0.9784821129489765 0
238 0.6680091175191097 0.7942990687203603 0
239 0.2182315475482668 0.9623016448116153 0
240 0.2255288867572479 0.7511194349664759 0
241 0.1097301001956269 0.9246346573553172 0
242 0.2890927575871646 0.8361526316714787 0
243 0.34867599958171 0.8907794021839031 0
244 0.1339212389984629 0.8297617290537033 0
245 0.5408698120374894 0.8510728166617827 0
246 0.7610395438611121 0.9758588000849561 0
247 0.2878793328352552 0.8921325786746747 0
248 0.2713425173382504 0.7557382682192981 0
249 0.7870900963540687 0.8063725413393142 0
250 0.07305168712461052 0.8888194862740699 0
251 0.3503013708577433 0.9692477225123517 0
252 0.8980339191018566 0.9219920914205536 0
253 0.2191249165552702 0.8396867619293772 0
254 0.4873676549162321 0.8980878223302428 0
255 0.2471070182757394 0.8003304928210289 0
256 0.3531848556438333 0.8524588044609992 0
257 0.3024856598330498 0.9689473554372384 0
258 0.03186989016795 0.9676741910426531 0
259 0.2624033549901061 0.8702697382967591 0
260 0.3802482758077457 0.9276111088790417 0
261 0.1795047435921497 0.7417699712017816 0
262 0.2377826831992053 0.9279414796057983 0
263 0.1366260716905813 0.9734312181057612 0
264 0.3267108659794774 0.9274456436051874 0
265 0.3963158917634522 0.8088923681151285 0
266 0.05661645811046495 0.7801039594092669 0
267 0.4858878073875649 0.7769691303185302 0
268 0.2185637115926548 0.9391342781268592 0
269 0.4762935315884929 0.9714274739047246 0
270 0.02315655490546773 0.8376230981975537 0
271 0.2226308372245201 0.7815712275183666 0
272 0.6071246437155079 0.7882799596849597 0
273 0.599442757381311 0.9721281973093949 0
274 0.3167350246303684 0.8016619381535305 0
275 0.887189686863854 0.9811545236002301 0
276 0.05856128652972992 0.7302407932417734 0
277 0.8836562897585278 0.8144996264937729 0
278 0.8625479668173632 0.8536429626026929 0
279 0.4474910397452295 0.8127711069946281 0
280 0.1486450095765743 0.88361399776781 0
281 0.2330849356655896 0.8888515619196852 0
282 0.1694598311230736 0.8673707502710364 0
283 0.5075154229821559 0.9328417083676653 0
284 0.1344573624497678 0.7369821973491819 0
285 0.4543398575005937 0.9317198906192332 0
286 0.7251425617769109 0.9006443723833188 0
287 0.09322889221004876 0.7717730641430705 0
288 0.05999919115672919 0.9277476078735083 0
289 0.3947757476131767 0.8636162050016299 0
290 0.7775923335294028 0.8643897663223429 0
291 0.4197263665215177 0.8450380305631651 0
292 0.594055839092143 0.8999626994794712 0
293 0.5961321784374976 0.8599344236979485 0
294 0.353957103317454 0.7910596316362315 0
295 0.6897325056008904 0.9341247334683163 0
296 0.9379695691094356 0.9780186558786121 0
297 0.1945086954770637 0.8269774297376988 0
298 0.3503665389790453 0.9444127637359963 0
299 0.0857544408840742 0.9398302781364734 0
300 0.1152344905929578 0.8574854998956944 0
301 0.01986056189100495 0.7610731673354345 0
302 0.934810861993585 0.8859503788707301 0
303 0.4697832437009743 0.850438858247214 0
304 0.568155797700709 0.8217612625233627 0
305 0.4451046584585731 0.8653781295183441 0
306 0.4459005794977473 0.7664776421063575 0
307 0.8270984245061471 0.9739277856908191 0
308 0.4348589174533048 0.9787386248188955 0
309 0.4038384149617645 0.7628539927137764 0
310 0.4187751759643007 0.897443639461728 0
311 0.8381258942067589 0.8053836614181671 0
312 0.1695187789814876 0.7663323406483826 0
313 0.5760774629426483 0.9347808329628881 0
314 0.3241262911230922 0.7551075912694336 0
315 0.6621148458176535 0.8572742331509277 0
316 0.725919866313306 0.8001560772381635 0
317 0.4842527447249109 0.8004705377200081 0
318 0.1858746198262168 0.9806617604831663 0
319 0.1337124010940303 0.7804738274363968 0
320 0.1053912125952639 0.7337333411510016 0
321 0.8419378342760744 0.9106818868934647 0
322 0.8818402220592223 0.8733689279330401 0
323 0.714630041312009 0.9763696482096021 0
324 0.5173966859386638 0.8821545529530745 0
325 0.9433696729447236 0.8187309577525188 0
326 0.7391637597867288 0.9366994778989943 0
327 0.05961270365843736 0.9752668128528661 0
328 0.6400853934907115 0.826394589571922 0
329 0.4787907916850296 0.9463279368532718 0
330 0.3920040912667818 0.9774954250450871 0
331 0.2630749092050373 0.9364138142895237 0
332 0.5400625125179658 0.9022089276506314 0
333 0.6224020674149959 0.9340458471068612 0
334 0.09872885236868766 0.8962246999583311 0
335 0.2520284801704342 0.9747387834193626 0
336 0.7636061056305932 0.7970684460407187 0
337 0.7882481061953197 0.9802611940206249 0
338 0.9781508256691179 0.8836935666858637 0
339 0.6336160450249381 0.8877625376897293 0
340 0.637350025408887 0.9792543350864948 0
341 0.2683549096359168 0.7851403149968267 0
342 0.5694828217405578 0.7787033934293951 0
343 0.154649832370881 0.9077409913084162 0
344 0.02244685010257168 0.8837186579722909 0
345 0.5238587128561006 0.7741048745524263 0
346 0.9125072953630667 0.9445790137606367 0
347 0.7757843083455087 0.9126237945458917 0
348 0.6455547978455506 0.7859766066305949 0
349 0.4639437300496779 0.895201056575465 0
350 0.2698431929192703 0.8479952022406 0
351 0.249436612895349 0.747296867847893 0
352 0.02148847712607464 0.9468893398559224 0
353 0.334263762859026 0.8137247531689644 0
354 0.5143825597952729 0.9781996417932468 0
355 0.3715799803354031 0.8992733816856419 0
356 0.72082012859358 0.872776690359126 0
357 0.5603703578574765 0.9783057058029738 0
358 0.1319279708891851 0.9423243542249236 0
359 0.1427562310590003 0.8101200534277372 0
360 0.6855548954536107 0.8298045421812628 0
361 0.6912154792598978 0.7903289169833344 0
362 0.169463184955834 0.9441430650667229 0
363 0.02295883967798012 0.8064202014232478 0
364 0.6043928390578817 0.8112052644444049 0
365 0.6808705369431082 0.874094159717465 0
366 0.7027226128425135 0.9098883733767117 0
367 0.09955608810039435 0.9771202275959622 0
368 0.1011677207807571 0.8119532216834451 0
369 0.3108123554687537 0.8517427282093738 0
370 0.04874632005119077 0.8379029452590592 0
371 0.7227899737279488 0.8236673366194835 0
372 0.6000485360469741 0.9483335527933503 0
373 0.08778448265469166 0.851348193596682 0
374 0.1959844316257006 0.9014012327358247 0
375 0.3101380819160766 0.8768292103831284 0
376 0.4070567892082805 0.7891441179028952 0
377 0.4388203707155254 0.7907065782860647 0
378 0.4296830134020937 0.9520274862277103 0
379 0.1084695852742407 0.7858892254317038 0
380 0.3055124300882235 0.9426841290429469 0
381 0.6559478587172132 0.9057551389570153 0
382 0.203591757055596 0.740081718449039 0
383 0.3688163592541758 0.8347096586504239 0
384 0.8208283738807605 0.8653302035909041 0
385 0.8175956787110265 0.8424257622119909 0
386 0.8561689168898902 0.939895956533995 0
387 0.8025758069909218 0.8811464013177925 0
388 0.7158478321698167 0.9489728002228395 0
389 0.3289886110764308 0.9774451925817211 0
390 0.4024547963482763 0.9526696673360187 0
391 0.9417062930153013 0.9164141999662447 0
392 0.684087741493002 0.9791999933300831 0
393 0.05166954679299181 0.8746199792978165 0
394 0.8110258985669137 0.9393066911983737 0
395 0.1342193495017712 0.9205585349285551 0
396 0.06450268266635556 0.8016482525662948 0
397 0.3787691932574884 0.7592063876719271 0
398 0.7589961415115292 0.8950686817129387 0
399 0.2756984217099642 0.9133784416928522 0
400 0.3734071043399512 0.7997647791632764 0
401 0.2382750774488547 0.8236902391981629 0
402 0.8186191614305115 0.9139519600804518 0
403 0.9091480681836938 0.8459487276976427 0
404 0.9780181916492254 0.9466718964047938 0
405 0.5292022707162035 0.803764106398145 0
406 0.5573717187943785 0.7999151973997345 0
407 0.2994733295734024 0.9181727484581537 0
408 0.6150944126939437 0.9068412165819796 0
409 0.298401695660563 0.816369033765691 0
410 0.5226906765788898 0.9545743261890864 0
411 0.1705470135080991 0.8410250627140633 0
412 0.8353225492771825 0.829266263169368 0
413 0.6459903621616734 0.9547913060532073 0
414 0.8658405997655557 0.8986358889432486 0
415 0.2693121574258326 0.8055932940605873 0
416 0.618486327965784 0.860014024788023 0
417 0.9805659333683843 0.9064213254518875 0
418 0.6492380774848157 0.8065097932124652 0
419 0.5528638883934748 0.9548658453924689 0
420 0.8648049143465422 0.9807764064282228 0
421 0.7567158431735654 0.8297343912325856 0
422 0.4906998314396804 0.8713367504477292 0
423 0.9800404312497415 0.9801583689787747 0
424 0.3348791981369906 0.9069333882073446 0
425 0.5028729810995622 0.8102883433278042 0
426 0.4123486233208378 0.8250061912656069 0
427 0.4364902492435267 0.8848141148138691 0
428 0.07200252264730481 0.7601610117266816 0
429 0.4093690599102909 0.9166401944086711 0
430 0.3850128113497619 0.8828621170514581 0
431 0.1672082395095363 0.8030987339366763 0
432 0.9797146046333381 0.8185325038628399 0
433 0.4628609346426277 0.8279923664558079 0
434 0.9074564123221686 0.8887979299616718 0
435 0.6198678602723903 0.8223098944465453 0
436 0.1286344333331913 0.8755207261453045 0
437 0.4978377226480514 0.8472933787557844 0
438 0.5609009053707541 0.8672324167250192 0
439 0.5606153667639197 0.8886470515443934 0
440 0.7374999999993103 0.9830122901407901 0
441 0.4318849253792968 0.923872365347798 0
442 0.8301410363314841 0.9519516639334265 0
443 0.8145441570365703 0.7988050659408835 0
444 0.6825664739550079 0.809648731431504 0
445 0.137402134896437 0.7592734620132378 0
446 0.3304377486635272 0.8442785147843275 0
447 0.7972040100943185 0.8339029587598769 0
448 0.3101276827926046 0.7814292705770642 0
449 0.6752288059616952 0.9566589246098629 0
450 0.9795945541836755 0.8439583552070553 0
451 0.7445143644777874 0.7918474894188361 0
452 0.4582674849857507 0.9820618679011659 0
453 0.1918979901446764 0.8758111773753712 0
454 0.9528905014077491 0.9409415562243707 0
455 0.24711051353652 0.8439001693046266 0
456 0.4689532093620235 0.7656031301099147 0
457 0.9101434828493012 0.8101773797798556 0
458 0.6165524171384731 0.9826477096369937 0
459 0.020852905552489 0.9076931143752797 0
460 0.6461513644027679 0.9296274172448589 0
461 0.2099724126883604 0.8590865886801484 0
462 0.5307049657176625 0.9203394587771671 0
463 0.7914911257544324 0.9455865223018323 0
464 0.5907508291225215 0.777168211182599 0
465 0.8091520642924275 0.9828953962596314 0
466 0.2886283210201894 0.9843321189548668 0
467 0.3687170715719374 0.9805705659084132 0
468 0.6260138990223693 0.7816921298241305 0
469 0.8642816083659486 0.8023058675557059 0
470 0.06118606819382316 0.907974268901625 0
471 0.5805334616796333 0.9804885572540561 0
472 0.4307855619498336 0.8252966719436869 0
473 0.5512680930657091 0.8335216691272946 0
474 0.6424271825507812 0.8674920070592121 0
475 0.5829733729347876 0.8392287590597676 0
476 0.9349334378229903 0.9556090273675197 0
477 0.553337246667652 0.9275860787070664 0
478 0.9463108205292386 0.8402308427464713 0
479 0.5047608333626785 0.7694232913514603 0
480 0.9551334884061051 0.8751966474608992 0
481 0.2019031200476492 0.7877630613635763 0
482 0.7556872899245062 0.9538412315685474 0
483 0.7033533680404275 0.8417005606029681 0
484 0.7986415623807553 0.9011222648247172 0
485 0.4946543284840915 0.9808286974750445 0
486 0.7020164315984424 0.8629393670275111 0
487 0.4041224897842782 0.8828052963506062 0
488 0.9621054579582067 0.8119717567547049 0
489 0.497519920041936 0.9143499261491774 0
490 0.08386746088937723 0.7235205130609391 0
491 0.06754732201039701 0.9508220825029459 0
492 0.07537462418757412 0.8686640078360188 0
493 0.1510532115078974 0.8372114654529107 0
494 0.3479887652407416 0.8706787992260434 0
495 0.9609722429495948 0.9844101220111106 0
496 0.5824181918889288 0.9154517718294752 0
497 0.9120843628880761 0.9838090531457888 0
498 0.9214064551813531 0.925115578962654 0
499 0.3036896116396596 0.7449115035634524 0
500 0.3301089277066406 0.8854189138662706 0
501 0.6548467290299692 0.8396609133806074 0
502 0.2321742329887563 0.9799150799275531 0
503 0.1572053892768209 0.731336508055713 0
504 0.5255190864615055 0.8640309810450726 0
505 0.1629224904957378 0.9839269979937928 0
506 0.3455211176335728 0.7530373891286208 0
507 0.8711735659384469 0.961495047536188 0
508 0.7588978135515024 0.8729931070752831 0
509 0.6241076144940415 0.8387505179457208 0
510 0.6668844362199876 0.9240462132809211 0
511 0.7790361688873952 0.961070911577695 0
512 0.6751659867823836 0.8921293464911761 0
513 0.7396783668329046 0.8361384357155979 0
514 0.8788484620570127 0.9131842600433798 0
515 0.4681522968256622 0.8111397358280998 0
516 0.7656078162893141 0.8156378174033261 0
517 0.1785856339384123 0.8180959410625659 0
518 0.8522664499953398 0.83804383869862 0
519 0.8699014377702479 0.8350597562089142 0
520 0.1664942382892487 0.9206869091300899 0
521 0.8459290337022615 0.9815709570617234 0
522 0.9020799583961848 0.8277984817589203 0
523 0.6717218958304041 0.8408000871792092 0
524 0.2037514604097775 0.9260437354484109 0
525 0.3772800586862735 0.8524597645816849 0
526 0.1175993658479745 0.8207828481807413 0
527 0.04433369365491589 0.7975144719416665 0
528 0.8454406613610609 0.8896331872007821 0
529 0.8414567434361813 0.869071933902187 0
530 0.2881032024468551 0.7785928316543298 0
531 0.01382545813566945 0.7874999999998233 0
532 0.0176653121299986 0.7196332313072956 0
533 0.3789082037535418 0.8192202293519664 0
534 0.7848089752235243 0.8482766372580799 0
535 0.1117978351285589 0.8814988423267651 0
536 0.284878988493007 0.9509660385968215 0
537 0.7790889071428341 0.9309535445803777 0
538 0.7405694924735993 0.8601115055466169 0
539 0.2382488443394518 0.9081819104438851 0
540 0.8974729134671847 0.9639709046503506 0
541 0.3115942623863592 0.9864323108439665 0
542 0.1160877946422537 0.9827405857222293 0
543 0.1524174048106829 0.76769997285921 0
544 0.7340548534120757 0.9164062810945275 0
545 0.5774528313650173 0.8584551541864519 0
546 0.7601879193568012 0.9319087348445916 0
547 0.5339048893814005 0.8299803902600194 0
548 0.255469842984099 0.91708921806352 0
549 0.01576333798149962 0.9842366620184851 0
550 0.3436283034762786 0.830537772939568 0
551 0.3981185341741448 0.9308360115897454 0
552 0.1802350925436431 0.7852843941576493 0
553 0.5763743048181139 0.8970236146914882 0
554 0.1511538313000265 0.949909201843098 0
555 0.09941642856760861 0.7526107263100053 0
556 0.08363589504019116 0.9833183319542057 0
557 0.8771284113440769 0.9290234193618521 0
558 0.5201700408306695 0.8471654127147679 0
559 0.4255379160866696 0.7555964489073607 0
560 0.9274928754614513 0.8105371024782467 0
561 0.9853746855313641 0.9628418174763405 0
562 0.267454139217402 0.9840417467764859 0
563 0.1775232216742857 0.9628363793668333 0
564 0.01503176570555605 0.8617658852799247 0
565 0.01297274028402257 0.9624999999999884 0
566 0.03722646458802019 0.9866129202394196 0
567 0.452772913297151 0.8844955515751685 0
568 0.7425419627610561 0.9005438751199972 0
569 0.2467954740554486 0.8774336650933238 0
570 0.2863685317827638 0.7447116478380215 0
571 0.7103265200529076 0.7887393795673153 0
572 0.4124999999989388 0.9870808851085933 0
573 0.9592071461974958 0.8508879682941397 0
574 0.9865212779297112 0.8629527135238698 0
575 0.01282235917004692 0.7374999999999707 0
576 0.03642982102992923 0.7187628629365137 0
577 0.2613506387763643 0.9557299574016231 0
578 0.2081075682531967 0.9803240832331896 0
579 0.3670016530766355 0.9392705641965744 0
580 0.04556040247762205 0.9130819540158013 0
581 0.9226195571614889 0.8668873487791736 0
582 0.4640938411118387 0.9133499638747217 0
583 0.07585842261415986 0.7805734228187141 0
584 0.3366409616035551 0.7963360598049213 0
585 0.3682675800941645 0.7812341439275571 0
586 0.5877108261421006 0.8206312029019091 0
587 0.92779286437273 0.8428875228749697 0
588 0.2811796812170824 0.8171067080701773 0
$EndNodes
$Elements
1178
1 15 2 0 1 1
2 15 2 0 2 2
3 15 2 0 3 3
4 15 2 0 4 4
5 1 2 0 1 1 5
6 1 2 0 1 5 6
7 1 2 0 1 6 7
8 1 2 0 1 7 8
9 1 2 0 1 8 9
10 1 2 0 1 9 10
11 1 2 0 1 10 11
12 1 2 0 1 11 12
13 1 2 0 1 12 13
14 1 2 0 1 13 14
15 1 2 0 1 14 15
16 1 2 0 1 15 2
17 1 2 0 2 2 16
18 1 2 0 2 16 17
19 1 2 0 2 17 18
20 1 2 0 2 18 19
21 1 2 0 2 19 20
22 1 2 0 2 20 21
23 1 2 0 2 21 22
24 1 2 0 2 22 23
25 1 2 0 2 23 24
26 1 2 0 2 24 25
27 1 2 0 2 25 26
28 1 2 0 2 26 27
29 1 2 0 2 27 28
30 1 2 0 2 28 29
31 1 2 0 2 29 30
32 1 2 0 2 30 31
33 1 2 0 2 31 32
34 1 2 0 2 32 33
35 1 2 0 2 33 34
36 1 2 0 2 34 35
37 1 2 0 2 35 36
38 1 2 0 2 36 37
39 1 2 0 2 37 38
40 1 2 0 2 38 39
41 1 2 0 2 39 40
42 1 2 0 2 40 41
43 1 2 0 2 41 42
44 1 2 0 2 42 43
45 1 2 0 2 43 44
46 1 2 0 2 44 45
47 1 2 0 2 45 46
48 1 2 0 2 46 47
49 1 2 0 2 47 48
50 1 2 0 2 48 49
51 1 2 0 2 49 50
52 1 2 0 2 50 51
53 1 2 0 2 51 52
54 1 2 0 2 52 53
55 1 2 0 2 53 54
56 1 2 0 2 54 3
57 1 2 0 3 3 55
58 1 2 0 3 55 56
59 1 2 0 3 56 57
60 1 2 0 3 57 58
61 1 2 0 3 58 59
62 1 2 0 3 59 60
63 1 2 0 3 60 61
64 1 2 0 3 61 4
65 1 2 0 4 4 62
66 1 2 0 4 62 63
67 1 2 0 4 63 64
68 1 2 0 4 64 65
69 1 2 0 4 65 66
70 1 2 0 4 66 67
71 1 2 0 4 67 68
72 1 2 0 4 68 69
73 1 2 0 4 69 70
74 1 2 0 4 70 71
75 1 2 0 4 71 72
76 1 2 0 4 72 73
77 1 2 0 4 73 74
78 1 2 0 4 74 75
79 1 2 0 4 75 76
80 1 2 0 4 76 77
81 1 2 0 4 77 78
82 1 2 0 4 78 79
83 1 2 0 4 79 80
84 1 2 0 4 80 81
85 1 2 0 4 81 82
86 1 2 0 4 82 83
87 1 2 0 4 83 84
88 1 2 0 4 84 85
89 1 2 0 4 85 86
90 1 2 0 4 86 87
91 1 2 0 4 87 88
92 1 2 0 4 88 89
93 1 2 0 4 89 90
94 1 2 0 4 90 91
95 1 2 0 4 91 92
96 1 2 0 4 92 93
97 1 2 0 4 93 94
98 1 2 0 4 94 95
99 1 2 0 4 95 96
100 1 2 0 4 96 97
101 1 2 0 4 97 98
102 1 2 0 4 98 99
103 1 2 0 4 99 100
104 1 2 0 4 100 101
105 1 2 0 4 101 1
106 2 2 0 1 210 366 161
107 2 2 0 1 534 236 290
108 2 2 0 1 512 210 161
109 2 2 0 1 148 240 271
110 2 2 0 1 145 271 240
111 2 2 0 1 133 283 410
112 2 2 0 1 140 322 223
113 2 2 0 1 110 281 219
114 2 2 0 1 136 236 534
115 2 2 0 1 109 215 297
116 2 2 0 1 133 462 283
117 2 2 0 1 130 370 221
118 2 2 0 1 109 481 215
119 2 2 0 1 142 225 266
120 2 2 0 1 13 352 232
121 2 2 0 1 92 93 240
122 2 2 0 1 79 80 230
123 2 2 0 1 108 252 434
124 2 2 0 1 229 405 425
125 2 2 0 1 211 434 252
126 2 2 0 1 138 219 281
127 2 2 0 1 152 293 218
128 2 2 0 1 152 218 292
129 2 2 0 1 146 268 239
130 2 2 0 1 151 239 268
131 2 2 0 1 21 505 263
132 2 2 0 1 36 37 233
133 2 2 0 1 297 517 411
134 2 2 0 1 147 297 411
135 2 2 0 1 156 300 244
136 2 2 0 1 103 259 247
137 2 2 0 1 166 247 259
138 2 2 0 1 102 244 300
139 2 2 0 1 229 547 405
140 2 2 0 1 582 254 349
141 2 2 0 1 455 259 350
142 2 2 0 1 153 299 222
143 2 2 0 1 138 259 455
144 2 2 0 1 142 276 234
145 2 2 0 1 178 372 313
146 2 2 0 1 138 461 219
147 2 2 0 1 142 301 225
148 2 2 0 1 390 551 163
149 2 2 0 1 247 399 407
150 2 2 0 1 118 333 408
151 2 2 0 1 152 339 416
152 2 2 0 1 241 358 395
153 2 2 0 1 112 299 241
154 2 2 0 1 160 334 241
155 2 2 0 1 339 474 416
156 2 2 0 1 20 21 263
157 2 2 0 1 285 441 378
158 2 2 0 1 153 241 299
159 2 2 0 1 110 219 374
160 2 2 0 1 112 241 334
161 2 2 0 1 57 227 404
162 2 2 0 1 130 221 393
163 2 2 0 1 171 283 329
164 2 2 0 1 160 343 280
165 2 2 0 1 112 288 299
166 2 2 0 1 185 324 254
167 2 2 0 1 69 70 249
168 2 2 0 1 169 247 407
169 2 2 0 1 204 290 387
170 2 2 0 1 148 271 255
171 2 2 0 1 107 387 290
172 2 2 0 1 135 295 510
173 2 2 0 1 109 255 271
174 2 2 0 1 140 223 403
175 2 2 0 1 217 321 386
176 2 2 0 1 179 291 305
177 2 2 0 1 126 386 321
178 2 2 0 1 303 422 437
179 2 2 0 1 205 276 428
180 2 2 0 1 104 305 291
181 2 2 0 1 167 285 378
182 2 2 0 1 111 228 368
183 2 2 0 1 143 422 303
184 2 2 0 1 92 240 351
185 2 2 0 1 156 368 228
186 2 2 0 1 115 437 229
187 2 2 0 1 153 222 367
188 2 2 0 1 153 358 241
189 2 2 0 1 74 75 238
190 2 2 0 1 41 42 237
191 2 2 0 1 551 260 163
192 2 2 0 1 144 288 232
193 2 2 0 1 141 243 355
194 2 2 0 1 454 391 129
195 2 2 0 1 162 391 227
196 2 2 0 1 43 323 392
197 2 2 0 1 116 329 283
198 2 2 0 1 227 391 454
199 2 2 0 1 160 395 343
200 2 2 0 1 142 428 276
201 2 2 0 1 135 449 295
202 2 2 0 1 211 391 302
203 2 2 0 1 116 254 582
204 2 2 0 1 162 302 391
205 2 2 0 1 156 228 373
206 2 2 0 1 172 289 291
207 2 2 0 1 130 373 228
208 2 2 0 1 104 291 289
209 2 2 0 1 221 344 393
210 2 2 0 1 150 235 506
211 2 2 0 1 212 263 505
212 2 2 0 1 155 370 228
213 2 2 0 1 13 14 352
214 2 2 0 1 130 228 370
215 2 2 0 1 45 46 246
216 2 2 0 1 156 373 300
217 2 2 0 1 69 249 443
218 2 2 0 1 198 300 373
219 2 2 0 1 493 189 359
220 2 2 0 1 142 234 301
221 2 2 0 1 154 520 231
222 2 2 0 1 148 255 341
223 2 2 0 1 207 448 314
224 2 2 0 1 114 264 298
225 2 2 0 1 159 393 344
226 2 2 0 1 94 95 261
227 2 2 0 1 157 298 264
228 2 2 0 1 150 294 235
229 2 2 0 1 140 278 322
230 2 2 0 1 254 324 422
231 2 2 0 1 162 227 417
232 2 2 0 1 333 413 460
233 2 2 0 1 288 491 299
234 2 2 0 1 177 413 333
235 2 2 0 1 244 493 359
236 2 2 0 1 110 268 262
237 2 2 0 1 151 231 362
238 2 2 0 1 146 262 268
239 2 2 0 1 151 578 239
240 2 2 0 1 146 239 502
241 2 2 0 1 221 370 270
242 2 2 0 1 194 408 333
243 2 2 0 1 29 251 389
244 2 2 0 1 57 417 227
245 2 2 0 1 214 414 322
246 2 2 0 1 118 313 372
247 2 2 0 1 18 556 327
248 2 2 0 1 79 230 342
249 2 2 0 1 183 356 286
250 2 2 0 1 161 286 356
251 2 2 0 1 163 298 251
252 2 2 0 1 154 231 374
253 2 2 0 1 103 242 350
254 2 2 0 1 80 345 230
255 2 2 0 1 180 483 371
256 2 2 0 1 151 524 231
257 2 2 0 1 157 264 380
258 2 2 0 1 175 355 260
259 2 2 0 1 114 260 355
260 2 2 0 1 155 228 396
261 2 2 0 1 108 322 414
262 2 2 0 1 17 18 327
263 2 2 0 1 164 242 369
264 2 2 0 1 103 369 242
265 2 2 0 1 102 280 282
266 2 2 0 1 220 376 377
267 2 2 0 1 154 282 280
268 2 2 0 1 111 396 228
269 2 2 0 1 127 377 376
270 2 2 0 1 115 229 425
271 2 2 0 1 202 519 277
272 2 2 0 1 132 405 547
273 2 2 0 1 95 503 261
274 2 2 0 1 144 232 352
275 2 2 0 1 121 319 359
276 2 2 0 1 225 363 527
277 2 2 0 1 91 351 248
278 2 2 0 1 170 425 405
279 2 2 0 1 197 359 319
280 2 2 0 1 103 247 375
281 2 2 0 1 169 375 247
282 2 2 0 1 223 322 434
283 2 2 0 1 9 10 270
284 2 2 0 1 190 245 438
285 2 2 0 1 108 434 322
286 2 2 0 1 105 438 245
287 2 2 0 1 124 395 358
288 2 2 0 1 151 318 578
289 2 2 0 1 145 240 382
290 2 2 0 1 150 314 448
291 2 2 0 1 179 305 303
292 2 2 0 1 36 233 354
293 2 2 0 1 145 552 481
294 2 2 0 1 143 303 305
295 2 2 0 1 202 277 469
296 2 2 0 1 139 346 252
297 2 2 0 1 37 357 233
298 2 2 0 1 264 407 380
299 2 2 0 1 128 390 378
300 2 2 0 1 139 386 507
301 2 2 0 1 7 531 301
302 2 2 0 1 224 378 390
303 2 2 0 1 109 297 253
304 2 2 0 1 184 392 323
305 2 2 0 1 139 557 386
306 2 2 0 1 147 253 297
307 2 2 0 1 103 350 259
308 2 2 0 1 255 415 341
309 2 2 0 1 186 443 249
310 2 2 0 1 13 232 459
311 2 2 0 1 150 506 314
312 2 2 0 1 157 251 298
313 2 2 0 1 87 235 397
314 2 2 0 1 201 312 261
315 2 2 0 1 145 312 552
316 2 2 0 1 70 336 249
317 2 2 0 1 203 386 442
318 2 2 0 1 10 564 270
319 2 2 0 1 310 429 441
320 2 2 0 1 181 310 441
321 2 2 0 1 313 477 419
322 2 2 0 1 45 246 440
323 2 2 0 1 229 437 558
324 2 2 0 1 146 502 335
325 2 2 0 1 198 250 334
326 2 2 0 1 87 506 235
327 2 2 0 1 105 324 332
328 2 2 0 1 112 334 250
329 2 2 0 1 178 273 372
330 2 2 0 1 185 332 324
331 2 2 0 1 180 360 483
332 2 2 0 1 178 313 419
333 2 2 0 1 526 359 197
334 2 2 0 1 116 285 329
335 2 2 0 1 141 355 430
336 2 2 0 1 167 329 285
337 2 2 0 1 41 237 340
338 2 2 0 1 244 359 526
339 2 2 0 1 61 432 450
340 2 2 0 1 6 7 301
341 2 2 0 1 28 29 389
342 2 2 0 1 75 348 238
343 2 2 0 1 176 272 364
344 2 2 0 1 145 382 261
345 2 2 0 1 109 401 255
346 2 2 0 1 144 258 327
347 2 2 0 1 173 255 401
348 2 2 0 1 201 261 503
349 2 2 0 1 56 57 404
350 2 2 0 1 148 351 240
351 2 2 0 1 170 267 317
352 2 2 0 1 109 271 481
353 2 2 0 1 210 510 295
354 2 2 0 1 225 301 531
355 2 2 0 1 188 440 246
356 2 2 0 1 149 284 320
357 2 2 0 1 74 238 361
358 2 2 0 1 138 455 253
359 2 2 0 1 584 113 294
360 2 2 0 1 353 113 584
361 2 2 0 1 196 476 296
362 2 2 0 1 186 249 447
363 2 2 0 1 145 261 312
364 2 2 0 1 173 350 242
365 2 2 0 1 136 447 249
366 2 2 0 1 147 453 461
367 2 2 0 1 171 410 283
368 2 2 0 1 99 100 276
369 2 2 0 1 52 53 296
370 2 2 0 1 50 51 275
371 2 2 0 1 65 66 277
372 2 2 0 1 46 337 246
373 2 2 0 1 196 454 476
374 2 2 0 1 171 329 269
375 2 2 0 1 67 311 469
376 2 2 0 1 159 250 393
377 2 2 0 1 102 282 411
378 2 2 0 1 225 531 363
379 2 2 0 1 221 270 564
380 2 2 0 1 157 257 389
381 2 2 0 1 154 343 520
382 2 2 0 1 138 253 461
383 2 2 0 1 207 248 530
384 2 2 0 1 67 68 311
385 2 2 0 1 136 421 236
386 2 2 0 1 111 368 379
387 2 2 0 1 175 260 551
388 2 2 0 1 52 296 497
389 2 2 0 1 93 382 240
390 2 2 0 1 148 341 248
391 2 2 0 1 114 355 243
392 2 2 0 1 230 405 406
393 2 2 0 1 141 525 256
394 2 2 0 1 236 538 508
395 2 2 0 1 132 406 405
396 2 2 0 1 153 542 263
397 2 2 0 1 156 244 526
398 2 2 0 1 183 508 538
399 2 2 0 1 117 293 416
400 2 2 0 1 96 97 284
401 2 2 0 1 135 413 449
402 2 2 0 1 42 392 237
403 2 2 0 1 237 449 413
404 2 2 0 1 212 554 263
405 2 2 0 1 148 248 351
406 2 2 0 1 165 317 267
407 2 2 0 1 91 92 351
408 2 2 0 1 155 527 363
409 2 2 0 1 118 408 292
410 2 2 0 1 144 352 258
411 2 2 0 1 134 444 238
412 2 2 0 1 134 238 418
413 2 2 0 1 214 322 278
414 2 2 0 1 332 462 477
415 2 2 0 1 146 331 262
416 2 2 0 1 133 410 419
417 2 2 0 1 3 55 423
418 2 2 0 1 3 423 54
419 2 2 0 1 160 241 395
420 2 2 0 1 131 480 573
421 2 2 0 1 233 419 410
422 2 2 0 1 143 349 254
423 2 2 0 1 151 268 524
424 2 2 0 1 29 467 251
425 2 2 0 1 164 409 242
426 2 2 0 1 194 460 381
427 2 2 0 1 120 295 388
428 2 2 0 1 381 460 510
429 2 2 0 1 184 388 295
430 2 2 0 1 197 379 368
431 2 2 0 1 126 442 386
432 2 2 0 1 122 274 448
433 2 2 0 1 192 332 477
434 2 2 0 1 43 44 323
435 2 2 0 1 141 494 243
436 2 2 0 1 173 242 588
437 2 2 0 1 123 407 399
438 2 2 0 1 222 327 556
439 2 2 0 1 167 269 329
440 2 2 0 1 207 314 499
441 2 2 0 1 97 320 284
442 2 2 0 1 128 378 441
443 2 2 0 1 220 309 376
444 2 2 0 1 60 61 450
445 2 2 0 1 102 493 244
446 2 2 0 1 587 478 325
447 2 2 0 1 163 251 467
448 2 2 0 1 147 282 453
449 2 2 0 1 138 569 259
450 2 2 0 1 185 283 462
451 2 2 0 1 158 376 309
452 2 2 0 1 117 416 509
453 2 2 0 1 213 587 325
454 2 2 0 1 205 490 276
455 2 2 0 1 163 260 579
456 2 2 0 1 210 295 366
457 2 2 0 1 140 277 519
458 2 2 0 1 120 366 295
459 2 2 0 1 208 497 296
460 2 2 0 1 168 484 402
461 2 2 0 1 202 469 311
462 2 2 0 1 175 551 429
463 2 2 0 1 157 389 251
464 2 2 0 1 114 243 424
465 2 2 0 1 91 248 570
466 2 2 0 1 149 287 379
467 2 2 0 1 153 263 358
468 2 2 0 1 108 514 252
469 2 2 0 1 188 246 482
470 2 2 0 1 166 399 247
471 2 2 0 1 82 267 479
472 2 2 0 1 112 250 470
473 2 2 0 1 39 273 471
474 2 2 0 1 190 473 245
475 2 2 0 1 83 84 306
476 2 2 0 1 161 365 512
477 2 2 0 1 234 276 576
478 2 2 0 1 157 380 257
479 2 2 0 1 70 71 336
480 2 2 0 1 198 492 250
481 2 2 0 1 102 411 493
482 2 2 0 1 34 485 269
483 2 2 0 1 142 266 428
484 2 2 0 1 32 33 308
485 2 2 0 1 153 367 542
486 2 2 0 1 163 330 390
487 2 2 0 1 224 390 330
488 2 2 0 1 144 327 491
489 2 2 0 1 222 491 327
490 2 2 0 1 105 245 504
491 2 2 0 1 182 422 324
492 2 2 0 1 164 353 274
493 2 2 0 1 263 554 358
494 2 2 0 1 77 464 272
495 2 2 0 1 158 265 376
496 2 2 0 1 127 376 265
497 2 2 0 1 109 253 401
498 2 2 0 1 200 315 365
499 2 2 0 1 136 249 516
500 2 2 0 1 9 270 363
501 2 2 0 1 207 570 248
502 2 2 0 1 85 86 309
503 2 2 0 1 106 365 315
504 2 2 0 1 184 295 449
505 2 2 0 1 154 280 343
506 2 2 0 1 24 502 578
507 2 2 0 1 110 539 281
508 2 2 0 1 82 456 267
509 2 2 0 1 231 524 374
510 2 2 0 1 94 261 382
511 2 2 0 1 77 272 468
512 2 2 0 1 39 458 273
513 2 2 0 1 159 470 250
514 2 2 0 1 219 461 453
515 2 2 0 1 216 257 536
516 2 2 0 1 106 339 381
517 2 2 0 1 30 31 330
518 2 2 0 1 163 579 298
519 2 2 0 1 155 363 270
520 2 2 0 1 194 381 339
521 2 2 0 1 211 302 434
522 2 2 0 1 88 89 314
523 2 2 0 1 126 402 394
524 2 2 0 1 211 252 498
525 2 2 0 1 139 252 557
526 2 2 0 1 159 459 580
527 2 2 0 1 34 269 452
528 2 2 0 1 191 494 256
529 2 2 0 1 141 256 494
530 2 2 0 1 174 364 272
531 2 2 0 1 114 579 260
532 2 2 0 1 97 98 320
533 2 2 0 1 275 497 540
534 2 2 0 1 143 254 422
535 2 2 0 1 173 415 255
536 2 2 0 1 125 529 278
537 2 2 0 1 214 278 529
538 2 2 0 1 184 323 388
539 2 2 0 1 188 388 323
540 2 2 0 1 185 254 489
541 2 2 0 1 119 483 486
542 2 2 0 1 147 461 253
543 2 2 0 1 155 270 370
544 2 2 0 1 111 379 287
545 2 2 0 1 125 385 384
546 2 2 0 1 166 259 569
547 2 2 0 1 204 384 385
548 2 2 0 1 120 388 326
549 2 2 0 1 117 475 293
550 2 2 0 1 119 486 356
551 2 2 0 1 127 265 426
552 2 2 0 1 256 525 383
553 2 2 0 1 177 372 273
554 2 2 0 1 188 326 388
555 2 2 0 1 172 426 265
556 2 2 0 1 123 399 331
557 2 2 0 1 165 267 456
558 2 2 0 1 116 489 254
559 2 2 0 1 149 379 319
560 2 2 0 1 66 469 277
561 2 2 0 1 51 497 275
562 2 2 0 1 78 79 342
563 2 2 0 1 100 576 276
564 2 2 0 1 165 377 279
565 2 2 0 1 203 442 307
566 2 2 0 1 22 23 318
567 2 2 0 1 80 81 345
568 2 2 0 1 99 276 490
569 2 2 0 1 127 279 377
570 2 2 0 1 159 344 459
571 2 2 0 1 182 558 437
572 2 2 0 1 63 560 325
573 2 2 0 1 110 262 539
574 2 2 0 1 63 64 560
575 2 2 0 1 248 341 530
576 2 2 0 1 96 284 503
577 2 2 0 1 35 36 354
578 2 2 0 1 191 256 446
579 2 2 0 1 20 263 542
580 2 2 0 1 40 41 340
581 2 2 0 1 189 411 517
582 2 2 0 1 37 38 357
583 2 2 0 1 113 550 383
584 2 2 0 1 161 366 286
585 2 2 0 1 168 387 484
586 2 2 0 1 256 383 550
587 2 2 0 1 122 341 415
588 2 2 0 1 216 466 257
589 2 2 0 1 217 414 321
590 2 2 0 1 187 316 371
591 2 2 0 1 180 371 316
592 2 2 0 1 120 286 366
593 2 2 0 1 302 581 434
594 2 2 0 1 110 374 524
595 2 2 0 1 206 394 402
596 2 2 0 1 158 400 265
597 2 2 0 1 75 76 348
598 2 2 0 1 139 540 346
599 2 2 0 1 201 503 284
600 2 2 0 1 169 407 264
601 2 2 0 1 253 455 401
602 2 2 0 1 168 528 529
603 2 2 0 1 331 577 536
604 2 2 0 1 168 529 384
605 2 2 0 1 220 377 306
606 2 2 0 1 176 364 435
607 2 2 0 1 165 306 377
608 2 2 0 1 170 479 267
609 2 2 0 1 250 492 393
610 2 2 0 1 111 583 396
611 2 2 0 1 48 521 307
612 2 2 0 1 158 309 397
613 2 2 0 1 555 205 428
614 2 2 0 1 239 578 502
615 2 2 0 1 73 74 361
616 2 2 0 1 287 555 428
617 2 2 0 1 266 396 583
618 2 2 0 1 167 452 269
619 2 2 0 1 4 62 432
620 2 2 0 1 4 432 61
621 2 2 0 1 46 47 337
622 2 2 0 1 162 417 338
623 2 2 0 1 58 59 338
624 2 2 0 1 114 424 264
625 2 2 0 1 164 274 409
626 2 2 0 1 169 264 424
627 2 2 0 1 123 380 407
628 2 2 0 1 226 573 480
629 2 2 0 1 38 39 471
630 2 2 0 1 72 571 316
631 2 2 0 1 102 436 280
632 2 2 0 1 199 450 432
633 2 2 0 1 172 265 533
634 2 2 0 1 144 491 288
635 2 2 0 1 204 385 447
636 2 2 0 1 208 540 497
637 2 2 0 1 42 43 392
638 2 2 0 1 48 49 521
639 2 2 0 1 225 527 266
640 2 2 0 1 166 539 548
641 2 2 0 1 164 550 353
642 2 2 0 1 11 12 344
643 2 2 0 1 34 35 485
644 2 2 0 1 171 269 485
645 2 2 0 1 293 475 545
646 2 2 0 1 72 73 571
647 2 2 0 1 123 331 536
648 2 2 0 1 122 409 274
649 2 2 0 1 122 448 530
650 2 2 0 1 118 372 333
651 2 2 0 1 77 78 464
652 2 2 0 1 202 311 412
653 2 2 0 1 81 82 479
654 2 2 0 1 177 333 372
655 2 2 0 1 167 378 308
656 2 2 0 1 29 30 467
657 2 2 0 1 224 308 378
658 2 2 0 1 221 564 344
659 2 2 0 1 174 272 464
660 2 2 0 1 164 446 550
661 2 2 0 1 131 302 480
662 2 2 0 1 191 369 375
663 2 2 0 1 103 375 369
664 2 2 0 1 176 468 272
665 2 2 0 1 262 548 539
666 2 2 0 1 110 524 268
667 2 2 0 1 177 273 458
668 2 2 0 1 166 569 281
669 2 2 0 1 220 559 309
670 2 2 0 1 76 77 468
671 2 2 0 1 39 40 458
672 2 2 0 1 178 471 273
673 2 2 0 1 226 480 338
674 2 2 0 1 162 338 480
675 2 2 0 1 318 563 505
676 2 2 0 1 112 470 288
677 2 2 0 1 195 416 474
678 2 2 0 1 8 9 363
679 2 2 0 1 50 275 420
680 2 2 0 1 158 397 585
681 2 2 0 1 166 281 539
682 2 2 0 1 230 345 405
683 2 2 0 1 119 371 483
684 2 2 0 1 170 405 345
685 2 2 0 1 149 320 555
686 2 2 0 1 204 447 534
687 2 2 0 1 147 411 282
688 2 2 0 1 49 50 420
689 2 2 0 1 150 448 274
690 2 2 0 1 150 274 584
691 2 2 0 1 182 437 422
692 2 2 0 1 86 87 397
693 2 2 0 1 114 298 579
694 2 2 0 1 201 284 445
695 2 2 0 1 85 309 559
696 2 2 0 1 236 508 290
697 2 2 0 1 149 445 284
698 2 2 0 1 57 58 417
699 2 2 0 1 84 559 306
700 2 2 0 1 33 34 452
701 2 2 0 1 198 535 300
702 2 2 0 1 133 419 477
703 2 2 0 1 102 300 436
704 2 2 0 1 220 306 559
705 2 2 0 1 89 499 314
706 2 2 0 1 107 290 508
707 2 2 0 1 145 481 271
708 2 2 0 1 224 572 308
709 2 2 0 1 403 581 587
710 2 2 0 1 206 463 394
711 2 2 0 1 82 83 456
712 2 2 0 1 64 65 457
713 2 2 0 1 32 308 572
714 2 2 0 1 165 456 306
715 2 2 0 1 321 414 528
716 2 2 0 1 193 511 337
717 2 2 0 1 1 532 101
718 2 2 0 1 1 5 532
719 2 2 0 1 215 481 552
720 2 2 0 1 179 472 291
721 2 2 0 1 65 277 457
722 2 2 0 1 163 467 330
723 2 2 0 1 201 543 312
724 2 2 0 1 113 400 294
725 2 2 0 1 174 406 304
726 2 2 0 1 22 318 505
727 2 2 0 1 132 304 406
728 2 2 0 1 126 321 402
729 2 2 0 1 197 319 379
730 2 2 0 1 27 541 466
731 2 2 0 1 331 399 548
732 2 2 0 1 179 433 279
733 2 2 0 1 160 280 436
734 2 2 0 1 152 292 408
735 2 2 0 1 12 13 459
736 2 2 0 1 171 354 410
737 2 2 0 1 93 94 382
738 2 2 0 1 233 410 354
739 2 2 0 1 170 317 425
740 2 2 0 1 87 88 506
741 2 2 0 1 23 24 578
742 2 2 0 1 138 281 569
743 2 2 0 1 167 308 452
744 2 2 0 1 127 472 279
745 2 2 0 1 181 441 285
746 2 2 0 1 154 453 282
747 2 2 0 1 129 346 476
748 2 2 0 1 203 507 386
749 2 2 0 1 257 466 541
750 2 2 0 1 208 476 346
751 2 2 0 1 140 522 277
752 2 2 0 1 98 490 320
753 2 2 0 1 186 412 311
754 2 2 0 1 152 416 293
755 2 2 0 1 231 520 362
756 2 2 0 1 125 278 518
757 2 2 0 1 140 519 278
758 2 2 0 1 116 582 285
759 2 2 0 1 107 398 347
760 2 2 0 1 205 320 490
761 2 2 0 1 141 430 289
762 2 2 0 1 209 347 398
763 2 2 0 1 86 397 309
764 2 2 0 1 165 279 515
765 2 2 0 1 217 386 557
766 2 2 0 1 179 279 472
767 2 2 0 1 206 537 463
768 2 2 0 1 257 541 389
769 2 2 0 1 48 307 465
770 2 2 0 1 191 500 494
771 2 2 0 1 181 285 582
772 2 2 0 1 152 408 339
773 2 2 0 1 172 525 289
774 2 2 0 1 194 339 408
775 2 2 0 1 130 393 492
776 2 2 0 1 172 291 426
777 2 2 0 1 90 91 570
778 2 2 0 1 121 543 319
779 2 2 0 1 230 406 342
780 2 2 0 1 347 546 537
781 2 2 0 1 187 516 336
782 2 2 0 1 11 344 564
783 2 2 0 1 174 342 406
784 2 2 0 1 111 287 583
785 2 2 0 1 116 283 489
786 2 2 0 1 104 289 487
787 2 2 0 1 68 443 311
788 2 2 0 1 185 489 283
789 2 2 0 1 232 288 580
790 2 2 0 1 149 555 287
791 2 2 0 1 186 311 443
792 2 2 0 1 104 310 427
793 2 2 0 1 183 286 568
794 2 2 0 1 209 546 347
795 2 2 0 1 275 540 507
796 2 2 0 1 181 427 310
797 2 2 0 1 120 544 286
798 2 2 0 1 105 332 439
799 2 2 0 1 192 439 332
800 2 2 0 1 168 402 321
801 2 2 0 1 139 507 540
802 2 2 0 1 72 316 451
803 2 2 0 1 226 338 574
804 2 2 0 1 243 494 500
805 2 2 0 1 223 581 403
806 2 2 0 1 59 574 338
807 2 2 0 1 224 330 572
808 2 2 0 1 193 307 442
809 2 2 0 1 232 580 459
810 2 2 0 1 31 572 330
811 2 2 0 1 115 425 317
812 2 2 0 1 235 585 397
813 2 2 0 1 234 575 301
814 2 2 0 1 178 419 357
815 2 2 0 1 204 387 384
816 2 2 0 1 233 357 419
817 2 2 0 1 168 384 387
818 2 2 0 1 132 473 304
819 2 2 0 1 124 343 395
820 2 2 0 1 190 304 473
821 2 2 0 1 115 433 303
822 2 2 0 1 47 48 465
823 2 2 0 1 104 427 305
824 2 2 0 1 212 505 563
825 2 2 0 1 179 303 433
826 2 2 0 1 6 301 575
827 2 2 0 1 141 289 525
828 2 2 0 1 115 317 515
829 2 2 0 1 193 463 511
830 2 2 0 1 107 347 484
831 2 2 0 1 188 323 440
832 2 2 0 1 24 25 502
833 2 2 0 1 206 484 347
834 2 2 0 1 195 328 509
835 2 2 0 1 44 440 323
836 2 2 0 1 33 452 308
837 2 2 0 1 83 306 456
838 2 2 0 1 25 335 502
839 2 2 0 1 195 474 315
840 2 2 0 1 175 429 310
841 2 2 0 1 106 315 474
842 2 2 0 1 115 303 437
843 2 2 0 1 134 418 328
844 2 2 0 1 128 441 429
845 2 2 0 1 237 413 340
846 2 2 0 1 71 72 451
847 2 2 0 1 30 330 467
848 2 2 0 1 257 380 536
849 2 2 0 1 170 345 479
850 2 2 0 1 175 430 355
851 2 2 0 1 175 310 487
852 2 2 0 1 223 434 581
853 2 2 0 1 176 328 418
854 2 2 0 1 216 536 577
855 2 2 0 1 258 566 327
856 2 2 0 1 181 349 567
857 2 2 0 1 204 534 290
858 2 2 0 1 235 294 585
859 2 2 0 1 135 460 413
860 2 2 0 1 196 296 495
861 2 2 0 1 208 296 476
862 2 2 0 1 53 495 296
863 2 2 0 1 58 338 417
864 2 2 0 1 8 363 531
865 2 2 0 1 150 584 294
866 2 2 0 1 78 342 464
867 2 2 0 1 118 292 496
868 2 2 0 1 218 553 292
869 2 2 0 1 26 27 466
870 2 2 0 1 238 348 418
871 2 2 0 1 177 340 413
872 2 2 0 1 38 471 357
873 2 2 0 1 176 418 348
874 2 2 0 1 218 293 545
875 2 2 0 1 300 535 436
876 2 2 0 1 180 316 571
877 2 2 0 1 40 340 458
878 2 2 0 1 193 465 307
879 2 2 0 1 81 479 345
880 2 2 0 1 19 20 542
881 2 2 0 1 53 54 495
882 2 2 0 1 187 451 316
883 2 2 0 1 252 346 498
884 2 2 0 1 35 354 485
885 2 2 0 1 171 485 354
886 2 2 0 1 215 517 297
887 2 2 0 1 149 319 445
888 2 2 0 1 184 449 392
889 2 2 0 1 188 482 326
890 2 2 0 1 190 475 304
891 2 2 0 1 237 392 449
892 2 2 0 1 174 464 342
893 2 2 0 1 134 360 444
894 2 2 0 1 222 299 491
895 2 2 0 1 162 480 302
896 2 2 0 1 25 26 562
897 2 2 0 1 176 435 328
898 2 2 0 1 206 402 484
899 2 2 0 1 76 468 348
900 2 2 0 1 186 385 412
901 2 2 0 1 177 458 340
902 2 2 0 1 25 562 335
903 2 2 0 1 187 421 516
904 2 2 0 1 192 477 313
905 2 2 0 1 176 348 468
906 2 2 0 1 133 477 462
907 2 2 0 1 193 337 465
908 2 2 0 1 104 487 310
909 2 2 0 1 121 312 543
910 2 2 0 1 208 346 540
911 2 2 0 1 44 45 440
912 2 2 0 1 107 508 398
913 2 2 0 1 47 465 337
914 2 2 0 1 105 504 324
915 2 2 0 1 68 69 443
916 2 2 0 1 131 581 302
917 2 2 0 1 121 359 431
918 2 2 0 1 71 451 336
919 2 2 0 1 189 431 359
920 2 2 0 1 129 476 454
921 2 2 0 1 266 583 428
922 2 2 0 1 187 336 451
923 2 2 0 1 174 304 586
924 2 2 0 1 219 453 374
925 2 2 0 1 192 313 496
926 2 2 0 1 154 374 453
927 2 2 0 1 143 305 567
928 2 2 0 1 118 496 313
929 2 2 0 1 49 420 521
930 2 2 0 1 64 457 560
931 2 2 0 1 195 315 501
932 2 2 0 1 165 515 317
933 2 2 0 1 203 307 521
934 2 2 0 1 121 552 312
935 2 2 0 1 194 333 460
936 2 2 0 1 18 19 556
937 2 2 0 1 178 357 471
938 2 2 0 1 199 488 325
939 2 2 0 1 209 544 326
940 2 2 0 1 185 462 332
941 2 2 0 1 319 543 445
942 2 2 0 1 120 326 544
943 2 2 0 1 236 513 538
944 2 2 0 1 88 314 506
945 2 2 0 1 190 545 475
946 2 2 0 1 125 412 385
947 2 2 0 1 19 542 367
948 2 2 0 1 73 361 571
949 2 2 0 1 200 365 486
950 2 2 0 1 2 549 15
951 2 2 0 1 2 16 549
952 2 2 0 1 200 523 315
953 2 2 0 1 274 353 584
954 2 2 0 1 161 486 365
955 2 2 0 1 181 567 427
956 2 2 0 1 205 555 320
957 2 2 0 1 202 412 518
958 2 2 0 1 246 511 482
959 2 2 0 1 66 67 469
960 2 2 0 1 137 482 511
961 2 2 0 1 199 325 478
962 2 2 0 1 173 455 350
963 2 2 0 1 63 325 488
964 2 2 0 1 172 533 383
965 2 2 0 1 183 538 356
966 2 2 0 1 249 336 516
967 2 2 0 1 12 459 344
968 2 2 0 1 238 444 361
969 2 2 0 1 180 361 444
970 2 2 0 1 180 571 361
971 2 2 0 1 146 335 577
972 2 2 0 1 216 577 335
973 2 2 0 1 180 444 360
974 2 2 0 1 62 63 488
975 2 2 0 1 291 472 426
976 2 2 0 1 131 587 581
977 2 2 0 1 117 435 364
978 2 2 0 1 181 582 349
979 2 2 0 1 182 324 504
980 2 2 0 1 195 501 328
981 2 2 0 1 17 327 566
982 2 2 0 1 106 474 339
983 2 2 0 1 124 362 520
984 2 2 0 1 98 99 490
985 2 2 0 1 134 328 501
986 2 2 0 1 164 369 446
987 2 2 0 1 214 528 414
988 2 2 0 1 51 52 497
989 2 2 0 1 191 446 369
990 2 2 0 1 168 321 528
991 2 2 0 1 151 563 318
992 2 2 0 1 89 90 499
993 2 2 0 1 193 442 394
994 2 2 0 1 328 435 509
995 2 2 0 1 187 371 513
996 2 2 0 1 23 578 318
997 2 2 0 1 95 96 503
998 2 2 0 1 21 22 505
999 2 2 0 1 117 364 586
1000 2 2 0 1 209 326 546
1001 2 2 0 1 213 325 560
1002 2 2 0 1 115 515 433
1003 2 2 0 1 19 367 556
1004 2 2 0 1 227 454 404
1005 2 2 0 1 196 404 454
1006 2 2 0 1 172 383 525
1007 2 2 0 1 262 331 548
1008 2 2 0 1 246 337 511
1009 2 2 0 1 216 335 562
1010 2 2 0 1 7 8 531
1011 2 2 0 1 326 482 546
1012 2 2 0 1 200 486 483
1013 2 2 0 1 191 375 500
1014 2 2 0 1 186 447 385
1015 2 2 0 1 160 535 334
1016 2 2 0 1 198 334 535
1017 2 2 0 1 211 498 391
1018 2 2 0 1 198 373 492
1019 2 2 0 1 130 492 373
1020 2 2 0 1 146 577 331
1021 2 2 0 1 27 28 541
1022 2 2 0 1 129 391 498
1023 2 2 0 1 161 356 486
1024 2 2 0 1 129 498 346
1025 2 2 0 1 59 60 574
1026 2 2 0 1 5 6 575
1027 2 2 0 1 55 56 561
1028 2 2 0 1 10 11 564
1029 2 2 0 1 84 85 559
1030 2 2 0 1 31 32 572
1031 2 2 0 1 14 15 565
1032 2 2 0 1 16 17 566
1033 2 2 0 1 126 394 442
1034 2 2 0 1 100 101 576
1035 2 2 0 1 200 483 360
1036 2 2 0 1 54 423 495
1037 2 2 0 1 218 438 439
1038 2 2 0 1 105 439 438
1039 2 2 0 1 196 561 404
1040 2 2 0 1 124 520 343
1041 2 2 0 1 106 381 512
1042 2 2 0 1 122 530 341
1043 2 2 0 1 210 512 381
1044 2 2 0 1 119 538 513
1045 2 2 0 1 236 421 513
1046 2 2 0 1 122 588 409
1047 2 2 0 1 137 537 546
1048 2 2 0 1 122 415 588
1049 2 2 0 1 173 588 415
1050 2 2 0 1 134 523 360
1051 2 2 0 1 173 401 455
1052 2 2 0 1 200 360 523
1053 2 2 0 1 187 513 421
1054 2 2 0 1 196 423 561
1055 2 2 0 1 206 347 537
1056 2 2 0 1 193 394 463
1057 2 2 0 1 135 510 460
1058 2 2 0 1 175 487 430
1059 2 2 0 1 124 554 362
1060 2 2 0 1 212 362 554
1061 2 2 0 1 258 352 565
1062 2 2 0 1 14 565 352
1063 2 2 0 1 113 353 550
1064 2 2 0 1 143 567 349
1065 2 2 0 1 156 526 368
1066 2 2 0 1 119 356 538
1067 2 2 0 1 107 484 387
1068 2 2 0 1 151 362 563
1069 2 2 0 1 174 586 364
1070 2 2 0 1 212 563 362
1071 2 2 0 1 113 383 533
1072 2 2 0 1 106 512 365
1073 2 2 0 1 137 546 482
1074 2 2 0 1 169 500 375
1075 2 2 0 1 131 573 478
1076 2 2 0 1 124 358 554
1077 2 2 0 1 243 500 424
1078 2 2 0 1 169 424 500
1079 2 2 0 1 127 426 472
1080 2 2 0 1 197 368 526
1081 2 2 0 1 119 513 371
1082 2 2 0 1 207 530 448
1083 2 2 0 1 289 430 487
1084 2 2 0 1 275 507 420
1085 2 2 0 1 113 533 400
1086 2 2 0 1 108 414 514
1087 2 2 0 1 217 514 414
1088 2 2 0 1 266 527 396
1089 2 2 0 1 155 396 527
1090 2 2 0 1 210 381 510
1091 2 2 0 1 128 551 390
1092 2 2 0 1 222 556 367
1093 2 2 0 1 213 522 403
1094 2 2 0 1 140 403 522
1095 2 2 0 1 207 499 570
1096 2 2 0 1 189 493 411
1097 2 2 0 1 158 585 400
1098 2 2 0 1 294 400 585
1099 2 2 0 1 199 432 488
1100 2 2 0 1 117 586 475
1101 2 2 0 1 214 529 528
1102 2 2 0 1 125 518 412
1103 2 2 0 1 125 384 529
1104 2 2 0 1 123 536 380
1105 2 2 0 1 62 488 432
1106 2 2 0 1 203 521 420
1107 2 2 0 1 183 398 508
1108 2 2 0 1 28 389 541
1109 2 2 0 1 196 495 423
1110 2 2 0 1 203 420 507
1111 2 2 0 1 195 509 416
1112 2 2 0 1 265 400 533
1113 2 2 0 1 117 509 435
1114 2 2 0 1 245 547 558
1115 2 2 0 1 121 431 552
1116 2 2 0 1 183 568 398
1117 2 2 0 1 256 550 446
1118 2 2 0 1 305 427 567
1119 2 2 0 1 215 431 517
1120 2 2 0 1 189 517 431
1121 2 2 0 1 136 516 421
1122 2 2 0 1 166 548 399
1123 2 2 0 1 136 534 447
1124 2 2 0 1 287 428 583
1125 2 2 0 1 209 398 568
1126 2 2 0 1 56 404 561
1127 2 2 0 1 279 433 515
1128 2 2 0 1 229 558 547
1129 2 2 0 1 277 522 457
1130 2 2 0 1 199 573 450
1131 2 2 0 1 226 450 573
1132 2 2 0 1 213 403 587
1133 2 2 0 1 258 565 549
1134 2 2 0 1 258 549 566
1135 2 2 0 1 15 549 565
1136 2 2 0 1 16 566 549
1137 2 2 0 1 213 560 457
1138 2 2 0 1 137 463 537
1139 2 2 0 1 242 409 588
1140 2 2 0 1 137 511 463
1141 2 2 0 1 252 514 557
1142 2 2 0 1 213 457 522
1143 2 2 0 1 160 436 535
1144 2 2 0 1 55 561 423
1145 2 2 0 1 216 562 466
1146 2 2 0 1 128 429 551
1147 2 2 0 1 190 438 545
1148 2 2 0 1 218 545 438
1149 2 2 0 1 215 552 431
1150 2 2 0 1 201 445 543
1151 2 2 0 1 218 439 553
1152 2 2 0 1 192 553 439
1153 2 2 0 1 245 473 547
1154 2 2 0 1 131 478 587
1155 2 2 0 1 315 523 501
1156 2 2 0 1 60 450 574
1157 2 2 0 1 292 553 496
1158 2 2 0 1 192 496 553
1159 2 2 0 1 226 574 450
1160 2 2 0 1 134 501 523
1161 2 2 0 1 202 518 519
1162 2 2 0 1 132 547 473
1163 2 2 0 1 278 519 518
1164 2 2 0 1 26 466 562
1165 2 2 0 1 286 544 568
1166 2 2 0 1 209 568 544
1167 2 2 0 1 288 470 580
1168 2 2 0 1 245 558 504
1169 2 2 0 1 182 504 558
1170 2 2 0 1 159 580 470
1171 2 2 0 1 199 478 573
1172 2 2 0 1 304 475 586
1173 2 2 0 1 90 570 499
1174 2 2 0 1 217 557 514
1175 2 2 0 1 234 532 575
1176 2 2 0 1 5 575 532
1177 2 2 0 1 101 532 576
1178 2 2 0 1 234 576 532
$EndElements
