Point(5) = {0.000000, 0.300000, 0, 1};
Point(6) = {1.000000, 0.200000, 0, 1};

Line(7) = {6, 5};
Point(7) = {0.000000, 0.000000, 0, 1};
Line(8) = {7, 5};
Point(8) = {1.000000, 0.000000, 0, 1};
Line(9) = {6, 8};

Line(10) = {8, 7};
Line Loop(3) = {8, -7, 9, 10}; 
Plane Surface(3) = {3};
