Point(1) = {0.000000, 0.700000, 0, 1};
Point(2) = {0.000000, 1.000000, 0, 1};
Line(1) = {1, 2};
Point(3) = {1.000000, 1.000000, 0, 1};
Line(2) = {2, 3};
Point(4) = {1.000000, 0.800000, 0, 1};
Line(3) = {3, 4};

Line(4) = {4, 1};
Line Loop(1) = {1, 2, 3, 4}; 
Plane Surface(1) = {1};
