Point(1) = {0.000000, 0.700000, 0, 1};
Point(4) = {1.000000, 0.800000, 0, 1};
Line(4) = {4, 1};
Point(5) = {0.000000, 0.300000, 0, 1};
Line(5) = {5, 1};
Point(6) = {1.000000, 0.200000, 0, 1};
Line(6) = {4, 6};

Line(7) = {6, 5};
Line Loop(2) = {5, -4, 6, 7}; 
Plane Surface(2) = {2};
