// Gmsh project created on Mon Sep 25 14:39:15 2017
//+
Point(1) = {0, 0, 0, 1.0};
//+
Point(2) = {0, 0.4, 0, 1.0};
//+
Point(3) = {1, 0.3, 0, 1.0};
//+
Point(4) = {1, 0, 0, 1.0};
//+
Line(1) = {1, 2};
//+
Line(2) = {2, 3};
//+
Line(3) = {3, 4};
//+
Line(4) = {4, 1};
//+
Line Loop(1) = {1, 2, 3, 4};
//+
Plane Surface(1) = {1};
