// Gmsh project created on Thu May 11 17:35:53 2017
//+
Point(1) = {0, 0, 0, 1.0};
//+
Point(2) = {0, 1, 0, 1.0};
//+
Point(3) = {2, 0, 0, 1.0};
//+
Point(4) = {2, 0.5, 0, 1.0};
//+
Point(5) = {1, 0.5, 0, 1.0};
//+
Point(6) = {1, 1, 0, 1.0};
//+
Line(1) = {1, 3};
//+
Line(2) = {3, 4};
//+
Line(3) = {4, 5};
//+
Line(4) = {6, 6};
//+
Line(5) = {5, 5};
//+
Line(6) = {5, 6};
//+
Line(7) = {6, 2};
//+
Line(8) = {2, 1};
//+
Line Loop(9) = {7, 8, 1, 2, 3, 6};
//+
Plane Surface(10) = {9};
//+
Extrude {0, 0, 3} {
  Surface{10};
}
//+
Surface Loop(43) = {37, 10, 21, 25, 29, 33, 42, 41};
//+
Volume(44) = {43};
