cl__1 = 1;
Point(1) = {0, 0, 0, 1};
Point(2) = {0, 1, 0, 1};
Point(3) = {1, 1, 0, 1};
Point(4) = {1, 0, 0, 1};
Point(5) = {0, 0.4, 0, 1};
Point(6) = {0, 0.6, 0, 1};
Point(7) = {1, 0.8, 0, 1};
Point(8) = {1, 0.1, 0, 1};
Line(1) = {1, 5};
Line(2) = {5, 6};
Line(3) = {6, 2};
Line(4) = {2, 3};
Line(5) = {3, 7};
Line(6) = {7, 8};
Line(7) = {8, 4};
Line(8) = {4, 1};
Line(9) = {5, 8};
Line(10) = {6, 7};
Line Loop(12) = {1, 9, 7, 8};
Plane Surface(12) = {12};
Line Loop(14) = {2, 10, 6, -9};
Plane Surface(14) = {14};
Line Loop(16) = {4, 5, -10, 3};
Plane Surface(16) = {16};
